-- Merging decision tree log ---
manifest
ADDED from E:\Khoa\library\flutter\.pub-cache\hosted\pub.dartlang.org\url_launcher_macos-0.0.1+5\android\src\main\AndroidManifest.xml:1:1-3:12
INJECTED from E:\Khoa\library\flutter\.pub-cache\hosted\pub.dartlang.org\url_launcher_macos-0.0.1+5\android\src\main\AndroidManifest.xml:1:1-3:12
INJECTED from E:\Khoa\library\flutter\.pub-cache\hosted\pub.dartlang.org\url_launcher_macos-0.0.1+5\android\src\main\AndroidManifest.xml:1:1-3:12
	package
		ADDED from E:\Khoa\library\flutter\.pub-cache\hosted\pub.dartlang.org\url_launcher_macos-0.0.1+5\android\src\main\AndroidManifest.xml:2:3-50
		INJECTED from E:\Khoa\library\flutter\.pub-cache\hosted\pub.dartlang.org\url_launcher_macos-0.0.1+5\android\src\main\AndroidManifest.xml
		INJECTED from E:\Khoa\library\flutter\.pub-cache\hosted\pub.dartlang.org\url_launcher_macos-0.0.1+5\android\src\main\AndroidManifest.xml
	xmlns:android
		ADDED from E:\Khoa\library\flutter\.pub-cache\hosted\pub.dartlang.org\url_launcher_macos-0.0.1+5\android\src\main\AndroidManifest.xml:1:11-69
uses-sdk
INJECTED from E:\Khoa\library\flutter\.pub-cache\hosted\pub.dartlang.org\url_launcher_macos-0.0.1+5\android\src\main\AndroidManifest.xml reason: use-sdk injection requested
INJECTED from E:\Khoa\library\flutter\.pub-cache\hosted\pub.dartlang.org\url_launcher_macos-0.0.1+5\android\src\main\AndroidManifest.xml
INJECTED from E:\Khoa\library\flutter\.pub-cache\hosted\pub.dartlang.org\url_launcher_macos-0.0.1+5\android\src\main\AndroidManifest.xml
	android:minSdkVersion
		INJECTED from E:\Khoa\library\flutter\.pub-cache\hosted\pub.dartlang.org\url_launcher_macos-0.0.1+5\android\src\main\AndroidManifest.xml
		ADDED from E:\Khoa\library\flutter\.pub-cache\hosted\pub.dartlang.org\url_launcher_macos-0.0.1+5\android\src\main\AndroidManifest.xml
		INJECTED from E:\Khoa\library\flutter\.pub-cache\hosted\pub.dartlang.org\url_launcher_macos-0.0.1+5\android\src\main\AndroidManifest.xml
