-- Merging decision tree log ---
manifest
ADDED from E:\Khoa\library\flutter\.pub-cache\hosted\pub.dartlang.org\facebook_audience_network-0.7.0\android\src\main\AndroidManifest.xml:1:1-5:12
INJECTED from E:\Khoa\library\flutter\.pub-cache\hosted\pub.dartlang.org\facebook_audience_network-0.7.0\android\src\main\AndroidManifest.xml:1:1-5:12
INJECTED from E:\Khoa\library\flutter\.pub-cache\hosted\pub.dartlang.org\facebook_audience_network-0.7.0\android\src\main\AndroidManifest.xml:1:1-5:12
	package
		ADDED from E:\Khoa\library\flutter\.pub-cache\hosted\pub.dartlang.org\facebook_audience_network-0.7.0\android\src\main\AndroidManifest.xml:2:3-46
		INJECTED from E:\Khoa\library\flutter\.pub-cache\hosted\pub.dartlang.org\facebook_audience_network-0.7.0\android\src\main\AndroidManifest.xml
		INJECTED from E:\Khoa\library\flutter\.pub-cache\hosted\pub.dartlang.org\facebook_audience_network-0.7.0\android\src\main\AndroidManifest.xml
	xmlns:android
		ADDED from E:\Khoa\library\flutter\.pub-cache\hosted\pub.dartlang.org\facebook_audience_network-0.7.0\android\src\main\AndroidManifest.xml:1:11-69
application
ADDED from E:\Khoa\library\flutter\.pub-cache\hosted\pub.dartlang.org\facebook_audience_network-0.7.0\android\src\main\AndroidManifest.xml:3:3-4:45
	android:hardwareAccelerated
		ADDED from E:\Khoa\library\flutter\.pub-cache\hosted\pub.dartlang.org\facebook_audience_network-0.7.0\android\src\main\AndroidManifest.xml:4:9-43
uses-sdk
INJECTED from E:\Khoa\library\flutter\.pub-cache\hosted\pub.dartlang.org\facebook_audience_network-0.7.0\android\src\main\AndroidManifest.xml reason: use-sdk injection requested
INJECTED from E:\Khoa\library\flutter\.pub-cache\hosted\pub.dartlang.org\facebook_audience_network-0.7.0\android\src\main\AndroidManifest.xml
INJECTED from E:\Khoa\library\flutter\.pub-cache\hosted\pub.dartlang.org\facebook_audience_network-0.7.0\android\src\main\AndroidManifest.xml
	android:minSdkVersion
		INJECTED from E:\Khoa\library\flutter\.pub-cache\hosted\pub.dartlang.org\facebook_audience_network-0.7.0\android\src\main\AndroidManifest.xml
		ADDED from E:\Khoa\library\flutter\.pub-cache\hosted\pub.dartlang.org\facebook_audience_network-0.7.0\android\src\main\AndroidManifest.xml
		INJECTED from E:\Khoa\library\flutter\.pub-cache\hosted\pub.dartlang.org\facebook_audience_network-0.7.0\android\src\main\AndroidManifest.xml
